{
  "configVersion": 2,
  "packages": [
    {
      "name": "_fe_analyzer_shared",
      "rootUri": "file:///C:/flutter/.pub-cache/hosted/pub.dartlang.org/_fe_analyzer_shared-12.0.0",
      "packageUri": "lib/",
      "languageVersion": "2.2"
    },
    {
      "name": "analyzer",
      "rootUri": "file:///C:/flutter/.pub-cache/hosted/pub.dartlang.org/analyzer-0.40.6",
      "packageUri": "lib/",
      "languageVersion": "2.7"
    },
    {
      "name": "animated_text",
      "rootUri": "file:///C:/flutter/.pub-cache/hosted/pub.dartlang.org/animated_text-1.0.2",
      "packageUri": "lib/",
      "languageVersion": "2.7"
    },
    {
      "name": "archive",
      "rootUri": "file:///C:/flutter/.pub-cache/hosted/pub.dartlang.org/archive-2.0.13",
      "packageUri": "lib/",
      "languageVersion": "2.0"
    },
    {
      "name": "args",
      "rootUri": "file:///C:/flutter/.pub-cache/hosted/pub.dartlang.org/args-1.6.0",
      "packageUri": "lib/",
      "languageVersion": "2.3"
    },
    {
      "name": "async",
      "rootUri": "file:///C:/flutter/.pub-cache/hosted/pub.dartlang.org/async-2.5.0",
      "packageUri": "lib/",
      "languageVersion": "2.12"
    },
    {
      "name": "auto_route",
      "rootUri": "file:///C:/flutter/.pub-cache/hosted/pub.dartlang.org/auto_route-0.6.9",
      "packageUri": "lib/",
      "languageVersion": "2.7"
    },
    {
      "name": "bloc",
      "rootUri": "file:///C:/flutter/.pub-cache/hosted/pub.dartlang.org/bloc-6.1.1",
      "packageUri": "lib/",
      "languageVersion": "2.6"
    },
    {
      "name": "boolean_selector",
      "rootUri": "file:///C:/flutter/.pub-cache/hosted/pub.dartlang.org/boolean_selector-2.1.0",
      "packageUri": "lib/",
      "languageVersion": "2.12"
    },
    {
      "name": "build",
      "rootUri": "file:///C:/flutter/.pub-cache/hosted/pub.dartlang.org/build-1.5.2",
      "packageUri": "lib/",
      "languageVersion": "2.9"
    },
    {
      "name": "build_config",
      "rootUri": "file:///C:/flutter/.pub-cache/hosted/pub.dartlang.org/build_config-0.4.5",
      "packageUri": "lib/",
      "languageVersion": "2.9"
    },
    {
      "name": "build_daemon",
      "rootUri": "file:///C:/flutter/.pub-cache/hosted/pub.dartlang.org/build_daemon-2.1.8",
      "packageUri": "lib/",
      "languageVersion": "2.11"
    },
    {
      "name": "build_resolvers",
      "rootUri": "file:///C:/flutter/.pub-cache/hosted/pub.dartlang.org/build_resolvers-1.4.4",
      "packageUri": "lib/",
      "languageVersion": "2.9"
    },
    {
      "name": "build_runner",
      "rootUri": "file:///C:/flutter/.pub-cache/hosted/pub.dartlang.org/build_runner-1.10.9",
      "packageUri": "lib/",
      "languageVersion": "2.10"
    },
    {
      "name": "build_runner_core",
      "rootUri": "file:///C:/flutter/.pub-cache/hosted/pub.dartlang.org/build_runner_core-6.1.7",
      "packageUri": "lib/",
      "languageVersion": "2.9"
    },
    {
      "name": "built_collection",
      "rootUri": "file:///C:/flutter/.pub-cache/hosted/pub.dartlang.org/built_collection-5.0.0",
      "packageUri": "lib/",
      "languageVersion": "2.12"
    },
    {
      "name": "built_value",
      "rootUri": "file:///C:/flutter/.pub-cache/hosted/pub.dartlang.org/built_value-8.0.0-nullsafety.0",
      "packageUri": "lib/",
      "languageVersion": "2.12"
    },
    {
      "name": "cached_network_image",
      "rootUri": "file:///C:/flutter/.pub-cache/hosted/pub.dartlang.org/cached_network_image-2.5.0",
      "packageUri": "lib/",
      "languageVersion": "2.10"
    },
    {
      "name": "characters",
      "rootUri": "file:///C:/flutter/.pub-cache/hosted/pub.dartlang.org/characters-1.1.0",
      "packageUri": "lib/",
      "languageVersion": "2.12"
    },
    {
      "name": "charcode",
      "rootUri": "file:///C:/flutter/.pub-cache/hosted/pub.dartlang.org/charcode-1.2.0",
      "packageUri": "lib/",
      "languageVersion": "2.12"
    },
    {
      "name": "checked_yaml",
      "rootUri": "file:///C:/flutter/.pub-cache/hosted/pub.dartlang.org/checked_yaml-1.0.4",
      "packageUri": "lib/",
      "languageVersion": "2.7"
    },
    {
      "name": "cli_util",
      "rootUri": "file:///C:/flutter/.pub-cache/hosted/pub.dartlang.org/cli_util-0.2.0",
      "packageUri": "lib/",
      "languageVersion": "2.0"
    },
    {
      "name": "clock",
      "rootUri": "file:///C:/flutter/.pub-cache/hosted/pub.dartlang.org/clock-1.1.0",
      "packageUri": "lib/",
      "languageVersion": "2.12"
    },
    {
      "name": "cloud_firestore",
      "rootUri": "file:///C:/flutter/.pub-cache/hosted/pub.dartlang.org/cloud_firestore-0.16.0+1",
      "packageUri": "lib/",
      "languageVersion": "2.1"
    },
    {
      "name": "cloud_firestore_platform_interface",
      "rootUri": "file:///C:/flutter/.pub-cache/hosted/pub.dartlang.org/cloud_firestore_platform_interface-3.0.2",
      "packageUri": "lib/",
      "languageVersion": "2.0"
    },
    {
      "name": "cloud_firestore_web",
      "rootUri": "file:///C:/flutter/.pub-cache/hosted/pub.dartlang.org/cloud_firestore_web-0.3.0+2",
      "packageUri": "lib/",
      "languageVersion": "2.1"
    },
    {
      "name": "code_builder",
      "rootUri": "file:///C:/flutter/.pub-cache/hosted/pub.dartlang.org/code_builder-3.6.0",
      "packageUri": "lib/",
      "languageVersion": "2.7"
    },
    {
      "name": "collection",
      "rootUri": "file:///C:/flutter/.pub-cache/hosted/pub.dartlang.org/collection-1.15.0",
      "packageUri": "lib/",
      "languageVersion": "2.12"
    },
    {
      "name": "convert",
      "rootUri": "file:///C:/flutter/.pub-cache/hosted/pub.dartlang.org/convert-2.1.1",
      "packageUri": "lib/",
      "languageVersion": "1.17"
    },
    {
      "name": "crypto",
      "rootUri": "file:///C:/flutter/.pub-cache/hosted/pub.dartlang.org/crypto-2.1.5",
      "packageUri": "lib/",
      "languageVersion": "2.3"
    },
    {
      "name": "cupertino_icons",
      "rootUri": "file:///C:/flutter/.pub-cache/hosted/pub.dartlang.org/cupertino_icons-1.0.2",
      "packageUri": "lib/",
      "languageVersion": "2.12"
    },
    {
      "name": "dart_style",
      "rootUri": "file:///C:/flutter/.pub-cache/hosted/pub.dartlang.org/dart_style-1.3.10",
      "packageUri": "lib/",
      "languageVersion": "2.9"
    },
    {
      "name": "dartz",
      "rootUri": "file:///C:/flutter/.pub-cache/hosted/pub.dartlang.org/dartz-0.9.2",
      "packageUri": "lib/",
      "languageVersion": "1.24"
    },
    {
      "name": "eventify",
      "rootUri": "file:///C:/flutter/.pub-cache/hosted/pub.dartlang.org/eventify-0.1.6",
      "packageUri": "lib/",
      "languageVersion": "2.0"
    },
    {
      "name": "fake_async",
      "rootUri": "file:///C:/flutter/.pub-cache/hosted/pub.dartlang.org/fake_async-1.2.0",
      "packageUri": "lib/",
      "languageVersion": "2.12"
    },
    {
      "name": "ffi",
      "rootUri": "file:///C:/flutter/.pub-cache/hosted/pub.dartlang.org/ffi-0.1.3",
      "packageUri": "lib/",
      "languageVersion": "2.6"
    },
    {
      "name": "file",
      "rootUri": "file:///C:/flutter/.pub-cache/hosted/pub.dartlang.org/file-6.0.0",
      "packageUri": "lib/",
      "languageVersion": "2.12"
    },
    {
      "name": "firebase",
      "rootUri": "file:///C:/flutter/.pub-cache/hosted/pub.dartlang.org/firebase-8.0.0",
      "packageUri": "lib/",
      "languageVersion": "2.7"
    },
    {
      "name": "firebase_auth",
      "rootUri": "file:///C:/flutter/.pub-cache/hosted/pub.dartlang.org/firebase_auth-0.20.1",
      "packageUri": "lib/",
      "languageVersion": "2.0"
    },
    {
      "name": "firebase_auth_platform_interface",
      "rootUri": "file:///C:/flutter/.pub-cache/hosted/pub.dartlang.org/firebase_auth_platform_interface-3.1.0",
      "packageUri": "lib/",
      "languageVersion": "2.0"
    },
    {
      "name": "firebase_auth_web",
      "rootUri": "file:///C:/flutter/.pub-cache/hosted/pub.dartlang.org/firebase_auth_web-0.3.3",
      "packageUri": "lib/",
      "languageVersion": "2.0"
    },
    {
      "name": "firebase_core",
      "rootUri": "file:///C:/flutter/.pub-cache/hosted/pub.dartlang.org/firebase_core-0.7.0",
      "packageUri": "lib/",
      "languageVersion": "2.1"
    },
    {
      "name": "firebase_core_platform_interface",
      "rootUri": "file:///C:/flutter/.pub-cache/hosted/pub.dartlang.org/firebase_core_platform_interface-3.0.1",
      "packageUri": "lib/",
      "languageVersion": "2.1"
    },
    {
      "name": "firebase_core_web",
      "rootUri": "file:///C:/flutter/.pub-cache/hosted/pub.dartlang.org/firebase_core_web-0.2.1+3",
      "packageUri": "lib/",
      "languageVersion": "2.1"
    },
    {
      "name": "firebase_performance",
      "rootUri": "file:///C:/flutter/.pub-cache/hosted/pub.dartlang.org/firebase_performance-0.5.0+1",
      "packageUri": "lib/",
      "languageVersion": "2.0"
    },
    {
      "name": "firebase_storage",
      "rootUri": "file:///C:/flutter/.pub-cache/hosted/pub.dartlang.org/firebase_storage-7.0.0",
      "packageUri": "lib/",
      "languageVersion": "2.0"
    },
    {
      "name": "firebase_storage_platform_interface",
      "rootUri": "file:///C:/flutter/.pub-cache/hosted/pub.dartlang.org/firebase_storage_platform_interface-1.0.4",
      "packageUri": "lib/",
      "languageVersion": "2.0"
    },
    {
      "name": "firebase_storage_web",
      "rootUri": "file:///C:/flutter/.pub-cache/hosted/pub.dartlang.org/firebase_storage_web-0.1.1+3",
      "packageUri": "lib/",
      "languageVersion": "2.7"
    },
    {
      "name": "fixnum",
      "rootUri": "file:///C:/flutter/.pub-cache/hosted/pub.dartlang.org/fixnum-1.0.0",
      "packageUri": "lib/",
      "languageVersion": "2.12"
    },
    {
      "name": "flushbar",
      "rootUri": "file:///C:/flutter/.pub-cache/hosted/pub.dartlang.org/flushbar-1.10.4",
      "packageUri": "lib/",
      "languageVersion": "2.7"
    },
    {
      "name": "flutter",
      "rootUri": "file:///C:/flutter/packages/flutter",
      "packageUri": "lib/",
      "languageVersion": "2.12"
    },
    {
      "name": "flutter_bloc",
      "rootUri": "file:///C:/flutter/.pub-cache/hosted/pub.dartlang.org/flutter_bloc-6.1.2",
      "packageUri": "lib/",
      "languageVersion": "2.6"
    },
    {
      "name": "flutter_blurhash",
      "rootUri": "file:///C:/flutter/.pub-cache/hosted/pub.dartlang.org/flutter_blurhash-0.5.0",
      "packageUri": "lib/",
      "languageVersion": "2.4"
    },
    {
      "name": "flutter_cache_manager",
      "rootUri": "file:///C:/flutter/.pub-cache/hosted/pub.dartlang.org/flutter_cache_manager-2.1.1",
      "packageUri": "lib/",
      "languageVersion": "2.6"
    },
    {
      "name": "flutter_driver",
      "rootUri": "file:///C:/flutter/packages/flutter_driver",
      "packageUri": "lib/",
      "languageVersion": "2.12"
    },
    {
      "name": "flutter_screenutil",
      "rootUri": "file:///C:/flutter/.pub-cache/hosted/pub.dartlang.org/flutter_screenutil-4.0.3+2",
      "packageUri": "lib/",
      "languageVersion": "2.6"
    },
    {
      "name": "flutter_test",
      "rootUri": "file:///C:/flutter/packages/flutter_test",
      "packageUri": "lib/",
      "languageVersion": "2.12"
    },
    {
      "name": "flutter_web_plugins",
      "rootUri": "file:///C:/flutter/packages/flutter_web_plugins",
      "packageUri": "lib/",
      "languageVersion": "2.12"
    },
    {
      "name": "freezed",
      "rootUri": "file:///C:/flutter/.pub-cache/hosted/pub.dartlang.org/freezed-0.12.4",
      "packageUri": "lib/",
      "languageVersion": "2.7"
    },
    {
      "name": "freezed_annotation",
      "rootUri": "file:///C:/flutter/.pub-cache/hosted/pub.dartlang.org/freezed_annotation-0.12.0",
      "packageUri": "lib/",
      "languageVersion": "2.7"
    },
    {
      "name": "fuchsia_remote_debug_protocol",
      "rootUri": "file:///C:/flutter/packages/fuchsia_remote_debug_protocol",
      "packageUri": "lib/",
      "languageVersion": "2.2"
    },
    {
      "name": "get_it",
      "rootUri": "file:///C:/flutter/.pub-cache/hosted/pub.dartlang.org/get_it-5.0.6",
      "packageUri": "lib/",
      "languageVersion": "2.1"
    },
    {
      "name": "glob",
      "rootUri": "file:///C:/flutter/.pub-cache/hosted/pub.dartlang.org/glob-1.2.0",
      "packageUri": "lib/",
      "languageVersion": "2.1"
    },
    {
      "name": "google_fonts",
      "rootUri": "file:///C:/flutter/.pub-cache/hosted/pub.dartlang.org/google_fonts-1.1.2",
      "packageUri": "lib/",
      "languageVersion": "2.3"
    },
    {
      "name": "google_sign_in",
      "rootUri": "file:///C:/flutter/.pub-cache/hosted/pub.dartlang.org/google_sign_in-4.5.9",
      "packageUri": "lib/",
      "languageVersion": "2.1"
    },
    {
      "name": "google_sign_in_platform_interface",
      "rootUri": "file:///C:/flutter/.pub-cache/hosted/pub.dartlang.org/google_sign_in_platform_interface-1.1.2",
      "packageUri": "lib/",
      "languageVersion": "2.1"
    },
    {
      "name": "google_sign_in_web",
      "rootUri": "file:///C:/flutter/.pub-cache/hosted/pub.dartlang.org/google_sign_in_web-0.9.2",
      "packageUri": "lib/",
      "languageVersion": "2.6"
    },
    {
      "name": "graphs",
      "rootUri": "file:///C:/flutter/.pub-cache/hosted/pub.dartlang.org/graphs-0.2.0",
      "packageUri": "lib/",
      "languageVersion": "2.0"
    },
    {
      "name": "http",
      "rootUri": "file:///C:/flutter/.pub-cache/hosted/pub.dartlang.org/http-0.12.2",
      "packageUri": "lib/",
      "languageVersion": "2.4"
    },
    {
      "name": "http_multi_server",
      "rootUri": "file:///C:/flutter/.pub-cache/hosted/pub.dartlang.org/http_multi_server-2.2.0",
      "packageUri": "lib/",
      "languageVersion": "2.1"
    },
    {
      "name": "http_parser",
      "rootUri": "file:///C:/flutter/.pub-cache/hosted/pub.dartlang.org/http_parser-3.1.4",
      "packageUri": "lib/",
      "languageVersion": "2.3"
    },
    {
      "name": "image",
      "rootUri": "file:///C:/flutter/.pub-cache/hosted/pub.dartlang.org/image-2.1.19",
      "packageUri": "lib/",
      "languageVersion": "2.0"
    },
    {
      "name": "image_picker_web",
      "rootUri": "file:///C:/flutter/.pub-cache/hosted/pub.dartlang.org/image_picker_web-1.0.9",
      "packageUri": "lib/",
      "languageVersion": "2.1"
    },
    {
      "name": "injectable",
      "rootUri": "file:///C:/flutter/.pub-cache/hosted/pub.dartlang.org/injectable-1.1.0",
      "packageUri": "lib/",
      "languageVersion": "2.10"
    },
    {
      "name": "injectable_generator",
      "rootUri": "file:///C:/flutter/.pub-cache/hosted/pub.dartlang.org/injectable_generator-1.1.0",
      "packageUri": "lib/",
      "languageVersion": "2.10"
    },
    {
      "name": "integration_test",
      "rootUri": "file:///C:/flutter/packages/integration_test",
      "packageUri": "lib/",
      "languageVersion": "2.10"
    },
    {
      "name": "intl",
      "rootUri": "file:///C:/flutter/.pub-cache/hosted/pub.dartlang.org/intl-0.16.1",
      "packageUri": "lib/",
      "languageVersion": "2.5"
    },
    {
      "name": "io",
      "rootUri": "file:///C:/flutter/.pub-cache/hosted/pub.dartlang.org/io-0.3.4",
      "packageUri": "lib/",
      "languageVersion": "2.0"
    },
    {
      "name": "js",
      "rootUri": "file:///C:/flutter/.pub-cache/hosted/pub.dartlang.org/js-0.6.3",
      "packageUri": "lib/",
      "languageVersion": "2.12"
    },
    {
      "name": "json_annotation",
      "rootUri": "file:///C:/flutter/.pub-cache/hosted/pub.dartlang.org/json_annotation-3.1.1",
      "packageUri": "lib/",
      "languageVersion": "2.7"
    },
    {
      "name": "json_serializable",
      "rootUri": "file:///C:/flutter/.pub-cache/hosted/pub.dartlang.org/json_serializable-3.5.1",
      "packageUri": "lib/",
      "languageVersion": "2.7"
    },
    {
      "name": "kt_dart",
      "rootUri": "file:///C:/flutter/.pub-cache/hosted/pub.dartlang.org/kt_dart-0.8.0",
      "packageUri": "lib/",
      "languageVersion": "2.6"
    },
    {
      "name": "lint",
      "rootUri": "file:///C:/flutter/.pub-cache/hosted/pub.dartlang.org/lint-1.5.1",
      "packageUri": "lib/",
      "languageVersion": "2.12"
    },
    {
      "name": "logging",
      "rootUri": "file:///C:/flutter/.pub-cache/hosted/pub.dartlang.org/logging-0.11.4",
      "packageUri": "lib/",
      "languageVersion": "2.0"
    },
    {
      "name": "matcher",
      "rootUri": "file:///C:/flutter/.pub-cache/hosted/pub.dartlang.org/matcher-0.12.10",
      "packageUri": "lib/",
      "languageVersion": "2.12"
    },
    {
      "name": "material_design_icons_flutter",
      "rootUri": "file:///C:/flutter/.pub-cache/hosted/pub.dartlang.org/material_design_icons_flutter-4.0.5855",
      "packageUri": "lib/",
      "languageVersion": "1.19"
    },
    {
      "name": "meta",
      "rootUri": "file:///C:/flutter/.pub-cache/hosted/pub.dartlang.org/meta-1.3.0",
      "packageUri": "lib/",
      "languageVersion": "2.12"
    },
    {
      "name": "mime",
      "rootUri": "file:///C:/flutter/.pub-cache/hosted/pub.dartlang.org/mime-0.9.7",
      "packageUri": "lib/",
      "languageVersion": "2.0"
    },
    {
      "name": "nested",
      "rootUri": "file:///C:/flutter/.pub-cache/hosted/pub.dartlang.org/nested-1.0.0",
      "packageUri": "lib/",
      "languageVersion": "2.12"
    },
    {
      "name": "node_interop",
      "rootUri": "file:///C:/flutter/.pub-cache/hosted/pub.dartlang.org/node_interop-1.2.1",
      "packageUri": "lib/",
      "languageVersion": "2.9"
    },
    {
      "name": "node_io",
      "rootUri": "file:///C:/flutter/.pub-cache/hosted/pub.dartlang.org/node_io-1.1.1",
      "packageUri": "lib/",
      "languageVersion": "2.2"
    },
    {
      "name": "octo_image",
      "rootUri": "file:///C:/flutter/.pub-cache/hosted/pub.dartlang.org/octo_image-0.3.0",
      "packageUri": "lib/",
      "languageVersion": "2.7"
    },
    {
      "name": "package_config",
      "rootUri": "file:///C:/flutter/.pub-cache/hosted/pub.dartlang.org/package_config-1.9.3",
      "packageUri": "lib/",
      "languageVersion": "2.7"
    },
    {
      "name": "path",
      "rootUri": "file:///C:/flutter/.pub-cache/hosted/pub.dartlang.org/path-1.8.0",
      "packageUri": "lib/",
      "languageVersion": "2.12"
    },
    {
      "name": "path_provider",
      "rootUri": "file:///C:/flutter/.pub-cache/hosted/pub.dartlang.org/path_provider-1.6.27",
      "packageUri": "lib/",
      "languageVersion": "2.1"
    },
    {
      "name": "path_provider_linux",
      "rootUri": "file:///C:/flutter/.pub-cache/hosted/pub.dartlang.org/path_provider_linux-0.0.1+2",
      "packageUri": "lib/",
      "languageVersion": "2.1"
    },
    {
      "name": "path_provider_macos",
      "rootUri": "file:///C:/flutter/.pub-cache/hosted/pub.dartlang.org/path_provider_macos-0.0.4+8",
      "packageUri": "lib/",
      "languageVersion": "2.1"
    },
    {
      "name": "path_provider_platform_interface",
      "rootUri": "file:///C:/flutter/.pub-cache/hosted/pub.dartlang.org/path_provider_platform_interface-1.0.4",
      "packageUri": "lib/",
      "languageVersion": "2.1"
    },
    {
      "name": "path_provider_windows",
      "rootUri": "file:///C:/flutter/.pub-cache/hosted/pub.dartlang.org/path_provider_windows-0.0.4+3",
      "packageUri": "lib/",
      "languageVersion": "2.1"
    },
    {
      "name": "pedantic",
      "rootUri": "file:///C:/flutter/.pub-cache/hosted/pub.dartlang.org/pedantic-1.10.0-nullsafety.3",
      "packageUri": "lib/",
      "languageVersion": "2.12"
    },
    {
      "name": "petitparser",
      "rootUri": "file:///C:/flutter/.pub-cache/hosted/pub.dartlang.org/petitparser-3.1.0",
      "packageUri": "lib/",
      "languageVersion": "2.7"
    },
    {
      "name": "platform",
      "rootUri": "file:///C:/flutter/.pub-cache/hosted/pub.dartlang.org/platform-3.0.0",
      "packageUri": "lib/",
      "languageVersion": "2.12"
    },
    {
      "name": "plugin_platform_interface",
      "rootUri": "file:///C:/flutter/.pub-cache/hosted/pub.dartlang.org/plugin_platform_interface-1.0.3",
      "packageUri": "lib/",
      "languageVersion": "2.1"
    },
    {
      "name": "pool",
      "rootUri": "file:///C:/flutter/.pub-cache/hosted/pub.dartlang.org/pool-1.5.0",
      "packageUri": "lib/",
      "languageVersion": "2.12"
    },
    {
      "name": "process",
      "rootUri": "file:///C:/flutter/.pub-cache/hosted/pub.dartlang.org/process-4.0.0",
      "packageUri": "lib/",
      "languageVersion": "2.12"
    },
    {
      "name": "provider",
      "rootUri": "file:///C:/flutter/.pub-cache/hosted/pub.dartlang.org/provider-4.3.3",
      "packageUri": "lib/",
      "languageVersion": "2.7"
    },
    {
      "name": "pub_semver",
      "rootUri": "file:///C:/flutter/.pub-cache/hosted/pub.dartlang.org/pub_semver-1.4.4",
      "packageUri": "lib/",
      "languageVersion": "2.0"
    },
    {
      "name": "pubspec_parse",
      "rootUri": "file:///C:/flutter/.pub-cache/hosted/pub.dartlang.org/pubspec_parse-0.1.8",
      "packageUri": "lib/",
      "languageVersion": "2.7"
    },
    {
      "name": "quiver",
      "rootUri": "file:///C:/flutter/.pub-cache/hosted/pub.dartlang.org/quiver-2.1.5",
      "packageUri": "lib/",
      "languageVersion": "2.0"
    },
    {
      "name": "razorpay_flutter",
      "rootUri": "file:///C:/flutter/.pub-cache/hosted/pub.dartlang.org/razorpay_flutter-1.2.5",
      "packageUri": "lib/",
      "languageVersion": "2.1"
    },
    {
      "name": "rxdart",
      "rootUri": "file:///C:/flutter/.pub-cache/hosted/pub.dartlang.org/rxdart-0.25.0",
      "packageUri": "lib/",
      "languageVersion": "2.6"
    },
    {
      "name": "shared_preferences",
      "rootUri": "file:///C:/flutter/.pub-cache/hosted/pub.dartlang.org/shared_preferences-0.5.12+4",
      "packageUri": "lib/",
      "languageVersion": "2.1"
    },
    {
      "name": "shared_preferences_linux",
      "rootUri": "file:///C:/flutter/.pub-cache/hosted/pub.dartlang.org/shared_preferences_linux-0.0.2+4",
      "packageUri": "lib/",
      "languageVersion": "2.1"
    },
    {
      "name": "shared_preferences_macos",
      "rootUri": "file:///C:/flutter/.pub-cache/hosted/pub.dartlang.org/shared_preferences_macos-0.0.1+11",
      "packageUri": "lib/",
      "languageVersion": "2.1"
    },
    {
      "name": "shared_preferences_platform_interface",
      "rootUri": "file:///C:/flutter/.pub-cache/hosted/pub.dartlang.org/shared_preferences_platform_interface-1.0.4",
      "packageUri": "lib/",
      "languageVersion": "2.1"
    },
    {
      "name": "shared_preferences_web",
      "rootUri": "file:///C:/flutter/.pub-cache/hosted/pub.dartlang.org/shared_preferences_web-0.1.2+7",
      "packageUri": "lib/",
      "languageVersion": "2.1"
    },
    {
      "name": "shared_preferences_windows",
      "rootUri": "file:///C:/flutter/.pub-cache/hosted/pub.dartlang.org/shared_preferences_windows-0.0.2+3",
      "packageUri": "lib/",
      "languageVersion": "2.1"
    },
    {
      "name": "shelf",
      "rootUri": "file:///C:/flutter/.pub-cache/hosted/pub.dartlang.org/shelf-0.7.9",
      "packageUri": "lib/",
      "languageVersion": "2.1"
    },
    {
      "name": "shelf_web_socket",
      "rootUri": "file:///C:/flutter/.pub-cache/hosted/pub.dartlang.org/shelf_web_socket-0.2.4+1",
      "packageUri": "lib/",
      "languageVersion": "2.1"
    },
    {
      "name": "sky_engine",
      "rootUri": "file:///C:/flutter/bin/cache/pkg/sky_engine",
      "packageUri": "lib/",
      "languageVersion": "2.12"
    },
    {
      "name": "source_gen",
      "rootUri": "file:///C:/flutter/.pub-cache/hosted/pub.dartlang.org/source_gen-0.9.10+2",
      "packageUri": "lib/",
      "languageVersion": "2.10"
    },
    {
      "name": "source_span",
      "rootUri": "file:///C:/flutter/.pub-cache/hosted/pub.dartlang.org/source_span-1.8.0",
      "packageUri": "lib/",
      "languageVersion": "2.12"
    },
    {
      "name": "sqflite",
      "rootUri": "file:///C:/flutter/.pub-cache/hosted/pub.dartlang.org/sqflite-1.3.2+3",
      "packageUri": "lib/",
      "languageVersion": "2.10"
    },
    {
      "name": "sqflite_common",
      "rootUri": "file:///C:/flutter/.pub-cache/hosted/pub.dartlang.org/sqflite_common-1.0.3+1",
      "packageUri": "lib/",
      "languageVersion": "2.7"
    },
    {
      "name": "stack_trace",
      "rootUri": "file:///C:/flutter/.pub-cache/hosted/pub.dartlang.org/stack_trace-1.10.0",
      "packageUri": "lib/",
      "languageVersion": "2.12"
    },
    {
      "name": "stream_channel",
      "rootUri": "file:///C:/flutter/.pub-cache/hosted/pub.dartlang.org/stream_channel-2.1.0",
      "packageUri": "lib/",
      "languageVersion": "2.12"
    },
    {
      "name": "stream_transform",
      "rootUri": "file:///C:/flutter/.pub-cache/hosted/pub.dartlang.org/stream_transform-1.2.0",
      "packageUri": "lib/",
      "languageVersion": "2.6"
    },
    {
      "name": "string_scanner",
      "rootUri": "file:///C:/flutter/.pub-cache/hosted/pub.dartlang.org/string_scanner-1.1.0",
      "packageUri": "lib/",
      "languageVersion": "2.12"
    },
    {
      "name": "sync_http",
      "rootUri": "file:///C:/flutter/.pub-cache/hosted/pub.dartlang.org/sync_http-0.2.0",
      "packageUri": "lib/",
      "languageVersion": "2.0"
    },
    {
      "name": "synchronized",
      "rootUri": "file:///C:/flutter/.pub-cache/hosted/pub.dartlang.org/synchronized-2.2.0+2",
      "packageUri": "lib/",
      "languageVersion": "2.8"
    },
    {
      "name": "term_glyph",
      "rootUri": "file:///C:/flutter/.pub-cache/hosted/pub.dartlang.org/term_glyph-1.2.0",
      "packageUri": "lib/",
      "languageVersion": "2.12"
    },
    {
      "name": "test_api",
      "rootUri": "file:///C:/flutter/.pub-cache/hosted/pub.dartlang.org/test_api-0.2.19",
      "packageUri": "lib/",
      "languageVersion": "2.12"
    },
    {
      "name": "timing",
      "rootUri": "file:///C:/flutter/.pub-cache/hosted/pub.dartlang.org/timing-0.1.1+3",
      "packageUri": "lib/",
      "languageVersion": "2.2"
    },
    {
      "name": "typed_data",
      "rootUri": "file:///C:/flutter/.pub-cache/hosted/pub.dartlang.org/typed_data-1.3.0",
      "packageUri": "lib/",
      "languageVersion": "2.12"
    },
    {
      "name": "url_launcher",
      "rootUri": "file:///C:/flutter/.pub-cache/hosted/pub.dartlang.org/url_launcher-5.7.10",
      "packageUri": "lib/",
      "languageVersion": "2.1"
    },
    {
      "name": "url_launcher_linux",
      "rootUri": "file:///C:/flutter/.pub-cache/hosted/pub.dartlang.org/url_launcher_linux-0.0.1+4",
      "packageUri": "lib/",
      "languageVersion": "2.1"
    },
    {
      "name": "url_launcher_macos",
      "rootUri": "file:///C:/flutter/.pub-cache/hosted/pub.dartlang.org/url_launcher_macos-0.0.1+9",
      "packageUri": "lib/",
      "languageVersion": "2.1"
    },
    {
      "name": "url_launcher_platform_interface",
      "rootUri": "file:///C:/flutter/.pub-cache/hosted/pub.dartlang.org/url_launcher_platform_interface-1.0.9",
      "packageUri": "lib/",
      "languageVersion": "2.1"
    },
    {
      "name": "url_launcher_web",
      "rootUri": "file:///C:/flutter/.pub-cache/hosted/pub.dartlang.org/url_launcher_web-0.1.5+3",
      "packageUri": "lib/",
      "languageVersion": "2.2"
    },
    {
      "name": "url_launcher_windows",
      "rootUri": "file:///C:/flutter/.pub-cache/hosted/pub.dartlang.org/url_launcher_windows-0.0.1+3",
      "packageUri": "lib/",
      "languageVersion": "2.1"
    },
    {
      "name": "uuid",
      "rootUri": "file:///C:/flutter/.pub-cache/hosted/pub.dartlang.org/uuid-2.2.2",
      "packageUri": "lib/",
      "languageVersion": "2.2"
    },
    {
      "name": "vector_math",
      "rootUri": "file:///C:/flutter/.pub-cache/hosted/pub.dartlang.org/vector_math-2.1.0",
      "packageUri": "lib/",
      "languageVersion": "2.12"
    },
    {
      "name": "vm_service",
      "rootUri": "file:///C:/flutter/.pub-cache/hosted/pub.dartlang.org/vm_service-5.5.0",
      "packageUri": "lib/",
      "languageVersion": "2.6"
    },
    {
      "name": "watcher",
      "rootUri": "file:///C:/flutter/.pub-cache/hosted/pub.dartlang.org/watcher-0.9.7+15",
      "packageUri": "lib/",
      "languageVersion": "2.2"
    },
    {
      "name": "web_socket_channel",
      "rootUri": "file:///C:/flutter/.pub-cache/hosted/pub.dartlang.org/web_socket_channel-1.1.0",
      "packageUri": "lib/",
      "languageVersion": "2.0"
    },
    {
      "name": "webdriver",
      "rootUri": "file:///C:/flutter/.pub-cache/hosted/pub.dartlang.org/webdriver-2.1.2",
      "packageUri": "lib/",
      "languageVersion": "2.0"
    },
    {
      "name": "win32",
      "rootUri": "file:///C:/flutter/.pub-cache/hosted/pub.dartlang.org/win32-1.7.4+1",
      "packageUri": "lib/",
      "languageVersion": "2.7"
    },
    {
      "name": "xdg_directories",
      "rootUri": "file:///C:/flutter/.pub-cache/hosted/pub.dartlang.org/xdg_directories-0.1.2",
      "packageUri": "lib/",
      "languageVersion": "2.3"
    },
    {
      "name": "xml",
      "rootUri": "file:///C:/flutter/.pub-cache/hosted/pub.dartlang.org/xml-4.5.1",
      "packageUri": "lib/",
      "languageVersion": "2.7"
    },
    {
      "name": "yaml",
      "rootUri": "file:///C:/flutter/.pub-cache/hosted/pub.dartlang.org/yaml-2.2.1",
      "packageUri": "lib/",
      "languageVersion": "2.4"
    },
    {
      "name": "organikart_shared",
      "rootUri": "../",
      "packageUri": "lib/",
      "languageVersion": "2.7"
    }
  ],
  "generated": "2021-09-26T10:33:48.155044Z",
  "generator": "pub",
  "generatorVersion": "2.12.0-259.8.beta"
}
